.
------------------------Superuser Commands------------------------------
                            ~Available commands~
!owner:             Set admin mode to true or false
                           While false: Everyone can use the bot
                           While true: Only the owner can use the bot
!chatlog[username]:     Create a .log file with all chat history
                           related with a user.
!stop:                  Stop the bot.   

!status:                  Test if the bot is working or not.    

!suggerimenti.clear:    Clear Suggerimenti.txt  from bullshit

!spam:                  Spam shit.

!emospam:               Spam emoticons.

!doxhelp:               Show dox basic commands.

!cspam[times]:          Spam x times some shitty phrases.

!newadmin:              Add admin to the bot.

!ban:                   Ban a user from the bot.

!removeadmin:           Remove an admin from the bot.

!unban:                 Unban a user.

!logtofile[true/false]: If true: Save the logs into logs file
                        If false: Just print the logs in the console
----------------------------------------------------------------------------             
